dump.vcd
$date
Tue Mar  3 16:38:35 2026
$end
$version
Riviera-PRO Version 2025.04.139.9738
$end
$timescale
1 ns
$end

$scope module testbench $end
$var reg 1 ! clk $end

$scope module apb_if $end
$var reg 1 " preset_n $end
$var reg 4 # paddr [3:0] $end
$var reg 1 $ pwrite $end
$var reg 1 % psel $end
$var reg 1 & penable $end
$var reg 32 ' pwdata [31:0] $end
$var reg 1 ( pready $end
$var reg 32 ) prdata [31:0] $end
$var reg 1 * pslverr $end
$var reg 1 + has_checks $end
$upscope $end


$scope module axis_rx_if $end
$var reg 1 , aresetn $end
$var reg 1 - tvalid $end
$var reg 1 . tlast $end
$var reg 1 / tready $end
$var reg 8 0 tdata [7:0] $end
$var reg 1 1 has_checks $end
$var parameter 32 2 DATA_WIDTH [31:0] $end
$upscope $end


$scope module fpga_dsp_u $end
$var wire 1 3 axis4_s_aclk $end
$var wire 1 4 axis4_s_aresetn $end
$var wire 8 5 axis4_s_tdata [7:0] $end
$var wire 1 6 axis4_s_tready $end
$var wire 1 7 axis4_s_tvalid $end
$var wire 1 8 axis4_s_tlast $end
$var wire 1 9 axis4_m_aclk $end
$var wire 1 9 axis4_m_aresetn $end
$var wire 8 : axis4_m_tdata [7:0] $end
$var wire 1 9 axis4_m_tready $end
$var wire 1 ; axis4_m_tvalid $end
$var wire 1 < axis4_m_tlast $end
$var wire 1 3 apb_slave_pclk $end
$var wire 1 = apb_slave_presetn $end
$var wire 4 > apb_slave_paddr [3:0] $end
$var wire 1 ? apb_slave_penable $end
$var wire 32 @ apb_slave_prdata [31:0] $end
$var wire 32 A apb_slave_pwdata [31:0] $end
$var wire 1 B apb_slave_pwrite $end
$var wire 1 C apb_slave_psel $end
$var wire 1 D apb_slave_pready $end
$var wire 1 E apb_slave_pslverr $end
$var wire 2 F sel [1:0] $end
$var wire 8 G clean_sig_msb_shift_0 [7:0] $end
$var wire 8 H clean_sig_msb_shift_1 [7:0] $end
$var wire 8 I clean_sig_msb_shift_2 [7:0] $end
$var wire 8 J clean_sig_msb_shift_3 [7:0] $end
$var wire 8 K clean_sig [7:0] $end
$var reg 32 L reg0 [31:0] $end
$var reg 32 M reg1 [31:0] $end
$var reg 32 N reg2 [31:0] $end
$var reg 32 O reg3 [31:0] $end
$var reg 32 P rdata [31:0] $end
$var reg 32 Q apb_slave_prdata_r [31:0] $end
$var integer 32 R i $end
$var integer 32 S j $end
$var reg 20 T sum3 [19:0] $end
$var reg 1 U axis4_m_tvalid_r $end
$upscope $end

$upscope $end


$scope module uvm_pkg $end
$var integer 32 V UVM_UNBOUNDED_CONNECTIONS $end
$var reg 1 W uvm_start_uvm_declarations $end
$var integer 32 X uvm_global_random_seed $end
$var parameter 32 Y UVM_HDL_MAX_WIDTH [31:0] $end
$var parameter 32 Z UVM_STREAMBITS [31:0] $end
$var parameter 32 [ UVM_RADIX [31:0] $end
$var parameter 32 \ UVM_MACRO_NUMFLAGS [31:0] $end
$var parameter 32 ] UVM_DEFAULT [31:0] $end
$var parameter 32 ^ UVM_ALL_ON [31:0] $end
$var parameter 32 _ UVM_FLAGS_ON [31:0] $end
$var parameter 32 ` UVM_FLAGS_OFF [31:0] $end
$var parameter 32 a UVM_COPY [31:0] $end
$var parameter 32 b UVM_NOCOPY [31:0] $end
$var parameter 32 c UVM_COMPARE [31:0] $end
$var parameter 32 d UVM_NOCOMPARE [31:0] $end
$var parameter 32 e UVM_PRINT [31:0] $end
$var parameter 32 f UVM_NOPRINT [31:0] $end
$var parameter 32 g UVM_RECORD [31:0] $end
$var parameter 32 h UVM_NORECORD [31:0] $end
$var parameter 32 i UVM_PACK [31:0] $end
$var parameter 32 j UVM_NOPACK [31:0] $end
$var parameter 32 k UVM_PHYSICAL [31:0] $end
$var parameter 32 l UVM_ABSTRACT [31:0] $end
$var parameter 32 m UVM_READONLY [31:0] $end
$var parameter 32 n UVM_NODEFPRINT [31:0] $end
$var parameter 32 o UVM_MACRO_EXTRAS [31:0] $end
$var parameter 32 p UVM_FLAGS [31:0] $end
$var parameter 32 q UVM_UNPACK [31:0] $end
$var parameter 32 r UVM_CHECK_FIELDS [31:0] $end
$var parameter 32 s UVM_END_DATA_EXTRA [31:0] $end
$var parameter 32 t UVM_START_FUNCS [31:0] $end
$var parameter 32 u UVM_SET [31:0] $end
$var parameter 32 v UVM_SETINT [31:0] $end
$var parameter 32 w UVM_SETOBJ [31:0] $end
$var parameter 32 x UVM_SETSTR [31:0] $end
$var parameter 32 y UVM_END_FUNCS [31:0] $end
$var parameter 32 z UVM_STR_CRC_POLYNOMIAL [31:0] $end
$var parameter 32 { UVM_STDOUT [31:0] $end
$var parameter 32 | UVM_LOG_UVM_RM_RECORD [31:0] $end
$var parameter 32 } UVM_LINE_WIDTH [31:0] $end
$var parameter 32 ~ UVM_NUM_LINES [31:0] $end
$var parameter 32 !! UVM_SMALL_STRING [31:0] $end
$var parameter 32 "! UVM_LARGE_STRING [31:0] $end

$scope function uvm_hdl_check_path $end
$var integer 32 #! uvm_hdl_check_path $end
$upscope $end


$scope function uvm_hdl_deposit $end
$var reg 1024 $! value [1023:0] $end
$var integer 32 %! uvm_hdl_deposit $end
$upscope $end


$scope function uvm_hdl_force $end
$var reg 1024 &! value [1023:0] $end
$var integer 32 '! uvm_hdl_force $end
$upscope $end


$scope task uvm_hdl_force_time $end
$var reg 1024 (! value [1023:0] $end
$var time 64 )! force_time $end
$upscope $end


$scope function uvm_hdl_release_and_read $end
$var reg 1024 *! value [1023:0] $end
$var integer 32 +! uvm_hdl_release_and_read $end
$upscope $end


$scope function uvm_hdl_release $end
$var integer 32 ,! uvm_hdl_release $end
$upscope $end


$scope function uvm_hdl_read $end
$var reg 1024 -! value [1023:0] $end
$var integer 32 .! uvm_hdl_read $end
$upscope $end


$scope function uvm_dpi_get_next_arg_c $end
$var integer 32 /! init $end
$upscope $end


$scope function uvm_dpi_get_next_arg $end
$var integer 32 0! init $end
$upscope $end


$scope function uvm_dpi_regcomp $end
$upscope $end


$scope function uvm_dpi_regexec $end
$var integer 32 1! uvm_dpi_regexec $end
$upscope $end


$scope function uvm_dpi_regfree $end
$upscope $end


$scope function uvm_re_match $end
$var integer 32 2! uvm_re_match $end
$upscope $end


$scope function uvm_radix_to_string $end
$var integer 32 3! radix $end
$upscope $end


$scope function uvm_instance_scope $end
$var reg 8 4! c [7:0] $end
$var integer 32 5! pos $end
$upscope $end


$scope function uvm_oneway_hash $end
$var integer 32 6! seed $end
$var integer 32 7! uvm_oneway_hash $end
$var reg 1 8! msb $end
$var reg 8 9! current_byte [7:0] $end
$var reg 32 :! crc1 [31:0] $end
$upscope $end


$scope function uvm_create_random_seed $end
$var integer 32 ;! uvm_create_random_seed $end
$upscope $end


$scope function uvm_leaf_scope $end
$var reg 8 <! scope_separator [7:0] $end
$var reg 8 =! bracket_match [7:0] $end
$var integer 32 >! pos $end
$var integer 32 ?! bmatches $end
$upscope $end


$scope function get_radix_string_global $end
$var integer 32 @! radix $end
$upscope $end


$scope function uvm_bitstream_to_string $end
$var reg 4096 A! value [4095:0] $end
$var integer 32 B! size $end
$var integer 32 C! radix $end

$scope begin 13unnblk $end
$var reg 4096 D! _t [4095:0] $end
$upscope $end

$upscope $end


$scope function uvm_integral_to_string $end
$var reg 64 E! value [63:0] $end
$var integer 32 F! size $end
$var integer 32 G! radix $end

$scope begin 15unnblk $end
$var reg 64 H! _t [63:0] $end
$upscope $end

$upscope $end


$scope function uvm_vector_to_string $end
$var reg 4096 I! value [4095:0] $end
$var integer 32 J! size $end
$var integer 32 K! radix $end
$upscope $end


$scope function uvm_get_array_index_int $end
$var reg 1 L! is_wildcard $end
$var integer 32 M! uvm_get_array_index_int $end
$var integer 32 N! i $end
$upscope $end


$scope function uvm_get_array_index_string $end
$var reg 1 O! is_wildcard $end
$var integer 32 P! i $end
$upscope $end


$scope function uvm_is_array $end
$var reg 1 Q! uvm_is_array $end
$upscope $end


$scope function set_global_timeout $end
$var time 64 R! timeout $end
$var reg 1 S! overridable $end
$upscope $end


$scope function set_global_stop_timeout $end
$var time 64 T! timeout $end
$upscope $end


$scope function uvm_report_enabled $end
$var integer 32 U! verbosity $end
$var reg 2 V! severity $end
$var integer 32 W! uvm_report_enabled $end
$upscope $end


$scope function uvm_report $end
$var reg 2 X! severity $end
$var integer 32 Y! verbosity $end
$var integer 32 Z! line $end
$var reg 1 [! report_enabled_checked $end
$upscope $end


$scope function m__uvm_report_dpi $end
$var integer 32 \! severity $end
$var integer 32 ]! verbosity $end
$var integer 32 ^! line $end
$upscope $end


$scope function uvm_report_info $end
$var integer 32 _! verbosity $end
$var integer 32 `! line $end
$var reg 1 a! report_enabled_checked $end
$upscope $end


$scope function uvm_report_warning $end
$var integer 32 b! verbosity $end
$var integer 32 c! line $end
$var reg 1 d! report_enabled_checked $end
$upscope $end


$scope function uvm_report_error $end
$var integer 32 e! verbosity $end
$var integer 32 f! line $end
$var reg 1 g! report_enabled_checked $end
$upscope $end


$scope function uvm_report_fatal $end
$var integer 32 h! verbosity $end
$var integer 32 i! line $end
$var reg 1 j! report_enabled_checked $end
$upscope $end


$scope function uvm_string_to_severity $end
$var reg 2 k! sev $end
$var reg 1 l! uvm_string_to_severity $end
$upscope $end


$scope function set_config_int $end
$var reg 4096 m! value [4095:0] $end
$upscope $end


$scope function set_config_object $end
$var reg 1 n! clone $end
$upscope $end


$scope function uvm_is_match $end
$var reg 1 o! uvm_is_match $end
$upscope $end


$scope function uvm_string_to_bits $end
$var reg 115200 p! uvm_string_to_bits [115199:0] $end
$upscope $end


$scope function uvm_bits_to_string $end
$var reg 115200 q! str [115199:0] $end
$upscope $end


$scope task uvm_wait_for_nba_region $end
$var integer 32 r! nba $end
$var integer 32 s! next_nba $end
$upscope $end

$upscope $end


$scope module std $end

$scope function randomize $end
$var reg 1 t! randomize $end
$upscope $end

$upscope $end

$enddefinitions $end
$dumpvars
0!
1"
bx #
x$
x%
x&
bx '
1(
b11111111111111111111111111111111 )
0*
1+
1,
x-
x.
z/
bx 0
11
b1000 2
03
14
bx 5
z6
x7
x8
z9
bx :
x;
x<
03
1=
bx >
x?
b11111111111111111111111111111111 @
bx A
xB
xC
1D
0E
bx F
bx G
bx H
bx I
bx J
bx K
bx L
bx M
bx N
bx O
bx P
b11111111111111111111111111111111 Q
bx R
bx S
bx T
xU
b11111111111111111111111111111111 V
1W
b1000011111110111011111100011111 X
b10000000000 Y
b1000000000000 Z
b1111000000000000000000000000 [
b10001 \
b10101010101 ]
b101010101 ^
b101010101 _
b0 `
b1 a
b10 b
b100 c
b1000 d
b10000 e
b100000 f
b1000000 g
b10000000 h
b100000000 i
b1000000000 j
b10000000000000 k
b100000000000000 l
b1000000000000000 m
b10000000000000000 n
b100000000000000000 o
b100000000000000001 p
b100000000000000010 q
b100000000000000011 r
b100000000000000100 s
b100000000000000101 t
b100000000000000110 u
b100000000000000110 v
b100000000000000111 w
b100000000000001000 x
b100000000000001000 y
b100110000010001110110110110 z
b1 {
b1000010 |
b1111000 }
b1111000 ~
b1110111111 !!
b11100000111111111 "!
b0 #!
bx $!
b0 %!
bx &!
b0 '!
bx (!
bx )!
bx *!
b0 +!
b0 ,!
bx -!
b0 .!
b0 /!
b0 0!
b0 1!
b0 2!
b0 3!
b111010 4!
b1000 5!
b1000011111110111011111100011111 6!
b11110111101100110001110010000 7!
18!
b1110100 9!
b10001110010110110000010100100101 :!
b10010111001101101001100100110001 ;!
b0 <!
b0 =!
b0 >!
b0 ?!
b0 @!
bx A!
b0 B!
b0 C!
bx D!
bx E!
b0 F!
b0 G!
bx H!
bx I!
b0 J!
b0 K!
0L!
b0 M!
b0 N!
0O!
b0 P!
0Q!
bx R!
0S!
bx T!
b111110100 U!
b0 V!
b0 W!
b0 X!
b0 Y!
b0 Z!
0[!
b0 \!
b0 ]!
b0 ^!
b0 _!
b0 `!
0a!
b0 b!
b0 c!
0d!
b0 e!
b0 f!
0g!
b0 h!
b0 i!
0j!
b0 k!
0l!
bx m!
0n!
1o!
bx p!
bx q!
b100101 r!
b100101 s!
0t!
$end
#3
0"
0,
04
0=
b1001 R
b1001 S
0%
0&
b0 '
0$
b0 #
0-
b0 0
b0 L
b0 M
b0 N
b0 O
b0 F
b0 5
07
b0 >
0B
b0 A
0?
0C
#5
1!
13
13
#10
0!
03
03
#15
1!
13
13
#20
0!
03
03
#25
1!
13
13
#30
0!
03
03
#33
1"
1,
14
1=
#35
1!
13
13
b100111 s!
b100111 r!
#40
0!
03
03
#45
1!
13
13
#50
0!
03
03
#55
1!
13
13
#60
0!
03
03
#65
1!
13
13
#70
0!
03
03
#75
1!
13
13
#80
0!
03
03
#85
1!
13
13
#90
0!
03
03
#95
1!
13
13
#100
b1011110100111101000001000101000 7!
b11110110001111000101110111100101 :!
b1100101 9!
18!
b1011110100111101000001000101000 ;!
0!
03
03
b11111010010011001111000110110101 7!
b1101001110011011010111001001001 :!
b1101101 9!
18!
b11111010010011001111000110110101 ;!
b101000 s!
b101000 r!
#105
1!
13
13
1-
b1000110 0
b1000110 5
17
#110
0!
03
03
#115
1!
13
13
0-
b0 0
b0 5
07
#120
0!
03
03
#125
1!
13
13
#130
0!
03
03
#135
1!
13
13
#140
0!
03
03
#145
1!
13
13
#150
0!
03
03
#155
1!
13
13
#160
0!
03
03
#165
1!
13
13
b101001 s!
b1011110100111101000001000101001 ;!
b11111010010011001111000110110110 ;!
b101001 r!
#170
0!
03
03
#175
1!
13
13
#180
0!
03
03
#185
1!
13
13
#190
0!
03
03
#195
1!
13
13
#200
0!
03
03
#205
1!
13
13
1-
b11100010 0
b11100010 5
17
#210
0!
03
03
#215
1!
13
13
0-
b0 0
b0 5
07
#220
0!
03
03
#225
1!
13
13
#230
0!
03
03
#235
1!
13
13
#240
0!
03
03
#245
1!
13
13
#250
0!
03
03
#255
1!
13
13
b101010 s!
b1011110100111101000001000101011 ;!
b11111010010011001111000110111000 ;!
b101010 r!
1-
b100 0
b100 5
17
#260
0!
03
03
#265
1!
13
13
0-
b0 0
b0 5
07
#270
0!
03
03
#275
1!
13
13
#280
0!
03
03
#285
1!
13
13
#290
0!
03
03
#295
1!
13
13
b101011 s!
b1011110100111101000001000101110 ;!
b11111010010011001111000110111011 ;!
b101011 r!
#300
0!
03
03
#305
1!
13
13
#310
0!
03
03
#315
1!
13
13
#320
0!
03
03
#325
1!
13
13
1-
b10000000 0
b10000000 5
17
#330
0!
03
03
#335
1!
13
13
0-
b0 0
b0 5
07
#340
0!
03
03
#345
1!
13
13
#350
0!
03
03
#355
1!
13
13
#360
0!
03
03
#365
1!
13
13
b101100 s!
b1011110100111101000001000110010 ;!
b11111010010011001111000110111111 ;!
b101100 r!
#370
0!
03
03
#375
1!
13
13
#380
0!
03
03
#385
1!
13
13
#390
0!
03
03
#395
1!
13
13
#400
0!
03
03
#405
1!
13
13
#410
0!
03
03
#415
1!
13
13
1-
b1001011 0
b1001011 5
17
#420
0!
03
03
#425
1!
13
13
0-
b0 0
b0 5
07
#430
0!
03
03
#435
1!
13
13
#440
0!
03
03
#445
1!
13
13
#450
0!
03
03
#455
1!
13
13
#460
0!
03
03
#465
1!
13
13
b101101 s!
b1011110100111101000001000110111 ;!
b11111010010011001111000111000100 ;!
b101101 r!
#470
0!
03
03
#475
1!
13
13
1-
b11100101 0
b11100101 5
17
#480
0!
03
03
#485
1!
13
13
0-
b0 0
b0 5
07
#490
0!
03
03
#495
1!
13
13
#500
0!
03
03
#505
1!
13
13
b101110 s!
b1011110100111101000001000111101 ;!
b11111010010011001111000111001010 ;!
b101110 r!
#510
0!
03
03
#515
1!
13
13
#520
0!
03
03
#525
1!
13
13
#530
0!
03
03
#535
1!
13
13
1-
b11010110 0
b11010110 5
17
#540
0!
03
03
#545
1!
13
13
0-
b0 0
b0 5
07
#550
0!
03
03
#555
1!
13
13
#560
0!
03
03
#565
1!
13
13
b101111 s!
b1011110100111101000001001000100 ;!
b11111010010011001111000111010001 ;!
b101111 r!
#570
0!
03
03
#575
1!
13
13
#580
0!
03
03
#585
1!
13
13
#590
0!
03
03
#595
1!
13
13
#600
0!
03
03
#605
1!
13
13
1-
b10010110 0
b10010110 5
17
#610
0!
03
03
#615
1!
13
13
0-
b0 0
b0 5
07
#620
0!
03
03
#625
1!
13
13
#630
0!
03
03
#635
1!
13
13
b110000 s!
b1011110100111101000001001001100 ;!
b11111010010011001111000111011001 ;!
b110000 r!
#640
0!
03
03
#645
1!
13
13
#650
0!
03
03
#655
1!
13
13
#660
0!
03
03
#665
1!
13
13
1-
b1011 0
b1011 5
17
#670
0!
03
03
#675
1!
13
13
0-
b0 0
b0 5
07
#680
0!
03
03
#685
1!
13
13
#690
0!
03
03
#695
1!
13
13
#700
0!
03
03
#705
1!
13
13
#710
0!
03
03
#715
1!
13
13
#720
0!
03
03
#725
1!
13
13
b110001 s!
b1011110100111101000001001010101 ;!
b11111010010011001111000111100010 ;!
b110001 r!
#730
0!
03
03
#735
1!
13
13
1-
b101101 0
b101101 5
17
#740
0!
03
03
#745
1!
13
13
0-
b0 0
b0 5
07
#750
0!
03
03
#755
1!
13
13
#760
0!
03
03
#765
1!
13
13
#770
0!
03
03
#775
1!
13
13
#780
0!
03
03
#785
1!
13
13
b110010 s!
b1011110100111101000001001011111 ;!
b11111010010011001111000111101100 ;!
b110010 r!
1-
b11101001 0
b11101001 5
17
#790
0!
03
03
#795
1!
13
13
0-
b0 0
b0 5
07
#800
0!
03
03
#805
1!
13
13
#810
0!
03
03
#815
1!
13
13
b110011 s!
b1011110100111101000001001101010 ;!
b11111010010011001111000111110111 ;!
b110011 r!
#820
0!
03
03
#825
1!
13
13
#830
0!
03
03
#835
1!
13
13
#840
0!
03
03
#845
1!
13
13
#850
0!
03
03
#855
1!
13
13
1-
b1001100 0
b1001100 5
17
#860
0!
03
03
#865
1!
13
13
b110100 s!
b1011110100111101000001001110110 ;!
b11111010010011001111001000000011 ;!
0-
b0 0
b110100 r!
b0 5
07
#870
0!
03
03
#875
1!
13
13
#880
0!
03
03
#885
1!
13
13
#890
0!
03
03
#895
1!
13
13
#900
0!
03
03
#905
1!
13
13
1-
b110001 0
b110001 5
17
#910
0!
03
03
#915
1!
13
13
0-
b0 0
b0 5
07
#920
0!
03
03
#925
1!
13
13
#930
0!
03
03
#935
1!
13
13
#940
0!
03
03
#945
1!
13
13
b110101 s!
b1011110100111101000001010000011 ;!
b11111010010011001111001000010000 ;!
b110101 r!
#950
0!
03
03
#955
1!
13
13
#960
0!
03
03
#965
1!
13
13
1-
b11001000 0
b11001000 5
17
#970
0!
03
03
#975
1!
13
13
0-
b0 0
b0 5
07
#980
0!
03
03
#985
1!
13
13
b110110 s!
b1011110100111101000001010010001 ;!
b11111010010011001111001000011110 ;!
b110110 r!
#990
0!
03
03
#995
1!
13
13
#1000
0!
03
03
#1005
1!
13
13
#1010
0!
03
03
#1015
1!
13
13
#1020
0!
03
03
#1025
1!
13
13
#1030
0!
03
03
#1035
1!
13
13
1-
b110000 0
b110000 5
17
#1040
0!
03
03
#1045
1!
13
13
0-
b0 0
b0 5
07
#1050
0!
03
03
#1055
1!
13
13
#1060
0!
03
03
#1065
1!
13
13
#1070
0!
03
03
#1075
1!
13
13
#1080
0!
03
03
#1085
1!
13
13
#1090
0!
03
03
#1095
1!
13
13
b110111 s!
b1011110100111101000001010100000 ;!
b11111010010011001111001000101101 ;!
b110111 r!
#1100
0!
03
03
#1105
1!
13
13
#1110
0!
03
03
#1115
1!
13
13
#1120
0!
03
03
#1125
1!
13
13
#1130
0!
03
03
#1135
1!
13
13
#1140
0!
03
03
#1145
1!
13
13
1-
b10011001 0
b10011001 5
17
#1150
0!
03
03
#1155
1!
13
13
0-
b0 0
b0 5
07
#1160
0!
03
03
#1165
1!
13
13
#1170
0!
03
03
#1175
1!
13
13
b111000 s!
b1011110100111101000001010110000 ;!
b11111010010011001111001000111101 ;!
b111000 r!
#1180
0!
03
03
#1185
1!
13
13
#1190
0!
03
03
#1195
1!
13
13
#1200
0!
03
03
#1205
1!
13
13
1-
b11111100 0
b11111100 5
17
#1210
0!
03
03
#1215
1!
13
13
b111001 s!
b1011110100111101000001011000001 ;!
b11111010010011001111001001001110 ;!
0-
b0 0
b111001 r!
b0 5
07
#1220
0!
03
03
#1225
1!
13
13
#1230
0!
03
03
#1235
1!
13
13
#1240
0!
03
03
#1245
1!
13
13
#1250
0!
03
03
#1255
1!
13
13
1-
b10111110 0
b10111110 5
17
#1260
0!
03
03
#1265
1!
13
13
0-
b0 0
b0 5
07
#1270
0!
03
03
#1275
1!
13
13
#1280
0!
03
03
#1285
1!
13
13
#1290
0!
03
03
#1295
1!
13
13
#1300
0!
03
03
#1305
1!
13
13
b111010 s!
b1011110100111101000001011010011 ;!
b11111010010011001111001001100000 ;!
b111010 r!
#1310
0!
03
03
#1315
1!
13
13
#1320
0!
03
03
#1325
1!
13
13
#1330
0!
03
03
#1335
1!
13
13
1-
b1 0
b1 5
17
#1340
0!
03
03
#1345
1!
13
13
0-
b0 0
b0 5
07
#1350
0!
03
03
#1355
1!
13
13
b111011 s!
b1011110100111101000001011100110 ;!
b11111010010011001111001001110011 ;!
b111011 r!
#1360
0!
03
03
#1365
1!
13
13
#1370
0!
03
03
#1375
1!
13
13
#1380
0!
03
03
#1385
1!
13
13
#1390
0!
03
03
#1395
1!
13
13
1-
b1111000 0
b1111000 5
17
#1400
0!
03
03
#1405
1!
13
13
b111100 s!
b1011110100111101000001011111010 ;!
b11111010010011001111001010000111 ;!
0-
b0 0
b111100 r!
b0 5
07
#1410
0!
03
03
#1415
1!
13
13
#1420
0!
03
03
#1425
1!
13
13
1-
b1 0
b1 5
17
#1430
0!
03
03
#1435
1!
13
13
b111101 s!
b1011110100111101000001100001111 ;!
b11111010010011001111001010011100 ;!
0-
b0 0
b111101 r!
b0 5
07
#1440
0!
03
03
#1445
1!
13
13
#1450
0!
03
03
#1455
1!
13
13
#1460
0!
03
03
#1465
1!
13
13
1-
b11011110 0
b11011110 5
17
#1470
0!
03
03
#1475
1!
13
13
0-
b0 0
b0 5
07
#1480
0!
03
03
#1485
1!
13
13
b111110 s!
b1011110100111101000001100100101 ;!
b11111010010011001111001010110010 ;!
b111110 r!
#1490
0!
03
03
#1495
1!
13
13
#1500
0!
03
03
#1505
1!
13
13
#1510
0!
03
03
#1515
1!
13
13
#1520
0!
03
03
#1525
1!
13
13
#1530
0!
03
03
#1535
1!
13
13
1-
b11101000 0
b11101000 5
17
#1540
0!
03
03
#1545
1!
13
13
0-
b0 0
b0 5
07
#1550
0!
03
03
#1555
1!
13
13
#1560
0!
03
03
#1565
1!
13
13
#1570
0!
03
03
#1575
1!
13
13
b111111 s!
b1011110100111101000001100111100 ;!
b11111010010011001111001011001001 ;!
b111111 r!
#1580
0!
03
03
#1585
1!
13
13
1-
b1110001 0
b1110001 5
17
#1590
0!
03
03
#1595
1!
13
13
0-
b0 0
b0 5
07
#1600
0!
03
03
#1605
1!
13
13
#1610
0!
03
03
#1615
1!
13
13
#1620
0!
03
03
#1625
1!
13
13
b1000000 s!
b1011110100111101000001101010100 ;!
b11111010010011001111001011100001 ;!
b1000000 r!
#1630
0!
03
03
#1635
1!
13
13
#1640
0!
03
03
#1645
1!
13
13
#1650
0!
03
03
#1655
1!
13
13
1-
b100 0
b100 5
17
#1660
0!
03
03
#1665
1!
13
13
0-
b0 0
b0 5
07
#1670
0!
03
03
#1675
1!
13
13
#1680
0!
03
03
#1685
1!
13
13
#1690
0!
03
03
#1695
1!
13
13
#1700
0!
03
03
#1705
1!
13
13
b1000001 s!
b1011110100111101000001101101101 ;!
b11111010010011001111001011111010 ;!
b1000001 r!
#1710
0!
03
03
#1715
1!
13
13
#1720
0!
03
03
#1725
1!
13
13
#1730
0!
03
03
#1735
1!
13
13
1-
b11110 0
b11110 5
17
#1740
0!
03
03
#1745
1!
13
13
0-
b0 0
b0 5
07
#1750
0!
03
03
#1755
1!
13
13
#1760
0!
03
03
#1765
1!
13
13
#1770
0!
03
03
#1775
1!
13
13
#1780
0!
03
03
#1785
1!
13
13
#1790
0!
03
03
#1795
1!
13
13
b1000010 s!
b1011110100111101000001110000111 ;!
b11111010010011001111001100010100 ;!
b1000010 r!
#1800
0!
03
03
#1805
1!
13
13
#1810
0!
03
03
#1815
1!
13
13
#1820
0!
03
03
#1825
1!
13
13
#1830
0!
03
03
#1835
1!
13
13
1-
b10001 0
b10001 5
17
#1840
0!
03
03
#1845
1!
13
13
0-
b0 0
b0 5
07
#1850
0!
03
03
#1855
1!
13
13
#1860
0!
03
03
#1865
1!
13
13
b1000011 s!
b1011110100111101000001110100010 ;!
b11111010010011001111001100101111 ;!
b1000011 r!
1-
b1101101 0
b1101101 5
17
#1870
0!
03
03
#1875
1!
13
13
0-
b0 0
b0 5
07
#1880
0!
03
03
#1885
1!
13
13
#1890
0!
03
03
#1895
1!
13
13
#1900
0!
03
03
#1905
1!
13
13
#1910
0!
03
03
#1915
1!
13
13
#1920
0!
03
03
#1925
1!
13
13
b1000100 s!
b1011110100111101000001110111110 ;!
b11111010010011001111001101001011 ;!
b1000100 r!
#1930
0!
03
03
#1935
1!
13
13
#1940
0!
03
03
#1945
1!
13
13
1-
b11001000 0
b11001000 5
17
#1950
0!
03
03
#1955
1!
13
13
0-
b0 0
b0 5
07
#1960
0!
03
03
#1965
1!
13
13
b1000101 s!
b1011110100111101000001111011011 ;!
b11111010010011001111001101101000 ;!
b1000101 r!
#1970
0!
03
03
#1975
1!
13
13
#1980
0!
03
03
#1985
1!
13
13
#1990
0!
03
03
#1995
1!
13
13
1-
b11111010 0
b11111010 5
17
#2000
0!
03
03
#2005
1!
13
13
0-
b0 0
b0 5
07
#2010
0!
03
03
#2015
1!
13
13
#2020
0!
03
03
#2025
1!
13
13
b1000110 s!
b1011110100111101000001111111001 ;!
b11111010010011001111001110000110 ;!
b1000110 r!
1-
b1111101 0
b1111101 5
17
#2030
0!
03
03
#2035
1!
13
13
0-
b0 0
b0 5
07
#2040
0!
03
03
#2045
1!
13
13
#2050
0!
03
03
#2055
1!
13
13
#2060
0!
03
03
#2065
1!
13
13
b1000111 s!
b1011110100111101000010000011000 ;!
b11111010010011001111001110100101 ;!
b1000111 r!
#2070
0!
03
03
#2075
1!
13
13
#2080
0!
03
03
#2085
1!
13
13
1-
b11101 0
b11101 5
17
#2090
0!
03
03
#2095
1!
13
13
0-
b0 0
b0 5
07
#2100
0!
03
03
#2105
1!
13
13
#2110
0!
03
03
#2115
1!
13
13
#2120
0!
03
03
#2125
1!
13
13
#2130
0!
03
03
#2135
1!
13
13
b1001000 s!
b1011110100111101000010000111000 ;!
b11111010010011001111001111000101 ;!
b1001000 r!
#2140
0!
03
03
#2145
1!
13
13
#2150
0!
03
03
#2155
1!
13
13
#2160
0!
03
03
#2165
1!
13
13
#2170
0!
03
03
#2175
1!
13
13
#2180
0!
03
03
#2185
1!
13
13
1-
b10101010 0
b10101010 5
17
#2190
0!
03
03
#2195
1!
13
13
0-
b0 0
b0 5
07
#2200
0!
03
03
#2205
1!
13
13
#2210
0!
03
03
#2215
1!
13
13
b1001001 s!
b1011110100111101000010001011001 ;!
b11111010010011001111001111100110 ;!
b1001001 r!
#2220
0!
03
03
#2225
1!
13
13
#2230
0!
03
03
#2235
1!
13
13
1-
b110100 0
b110100 5
17
#2240
0!
03
03
#2245
1!
13
13
0-
b0 0
b0 5
07
#2250
0!
03
03
#2255
1!
13
13
#2260
0!
03
03
#2265
1!
13
13
#2270
0!
03
03
#2275
1!
13
13
#2280
0!
03
03
#2285
1!
13
13
#2290
0!
03
03
#2295
1!
13
13
b1001010 s!
b1011110100111101000010001111011 ;!
b11111010010011001111010000001000 ;!
b1001010 r!
#2300
0!
03
03
#2305
1!
13
13
#2310
0!
03
03
#2315
1!
13
13
1-
b11011011 0
b11011011 5
17
#2320
0!
03
03
#2325
1!
13
13
0-
b0 0
b0 5
07
#2330
0!
03
03
#2335
1!
13
13
#2340
0!
03
03
#2345
1!
13
13
#2350
0!
03
03
#2355
1!
13
13
#2360
0!
03
03
#2365
1!
13
13
#2370
0!
03
03
#2375
1!
13
13
b1001011 s!
b1011110100111101000010010011110 ;!
b11111010010011001111010000101011 ;!
b1001011 r!
#2380
0!
03
03
#2385
1!
13
13
1-
b1101001 0
b1101001 5
17
#2390
0!
03
03
#2395
1!
13
13
0-
b0 0
b0 5
07
#2400
0!
03
03
#2405
1!
13
13
#2410
0!
03
03
#2415
1!
13
13
b1001100 s!
b1011110100111101000010011000010 ;!
b11111010010011001111010001001111 ;!
b1001100 r!
#2420
0!
03
03
#2425
1!
13
13
#2430
0!
03
03
#2435
1!
13
13
#2440
0!
03
03
#2445
1!
13
13
#2450
0!
03
03
#2455
1!
13
13
#2460
0!
03
03
#2465
1!
13
13
1-
b1110111 0
b1110111 5
17
#2470
0!
03
03
#2475
1!
13
13
0-
b0 0
b0 5
07
#2480
0!
03
03
#2485
1!
13
13
#2490
0!
03
03
#2495
1!
13
13
#2500
0!
03
03
#2505
1!
13
13
#2510
0!
03
03
#2515
1!
13
13
#2520
0!
03
03
#2525
1!
13
13
b1001101 s!
b1011110100111101000010011100111 ;!
b11111010010011001111010001110100 ;!
b1001101 r!
#2530
0!
03
03
#2535
1!
13
13
#2540
0!
03
03
#2545
1!
13
13
#2550
0!
03
03
#2555
1!
13
13
1-
b11 0
b11 5
17
#2560
0!
03
03
#2565
1!
13
13
0-
b0 0
b0 5
07
#2570
0!
03
03
#2575
1!
13
13
#2580
0!
03
03
#2585
1!
13
13
#2590
0!
03
03
#2595
1!
13
13
b1001110 s!
b1011110100111101000010100001101 ;!
b11111010010011001111010010011010 ;!
b1001110 r!
#2600
0!
03
03
